<svg width="20" height="20" viewBox="0 0 20 20" xmlns="http://www.w3.org/2000/svg">
    <path d="M2 10C2 5.58323 5.58323 2 10 2C14.4168 2 18 5.58323 18 10C18 14.4168 14.4168 18 10 18C5.58323 18 2 14.4168 2 10ZM10 3C6.13552 3 3 6.13552 3 10C3 13.8645 6.13552 17 10 17C13.8645 17 17 13.8645 17 10C17 6.13552 13.8645 3 10 3Z M10 6.375C10.2761 6.375 10.5 6.59886 10.5 6.875V13.125C10.5 13.4011 10.2761 13.625 10 13.625C9.72386 13.625 9.5 13.4011 9.5 13.125V6.875C9.5 6.59886 9.72386 6.375 10 6.375Z M6.375 10C6.375 9.72386 6.59886 9.5 6.875 9.5H13.125C13.4011 9.5 13.625 9.72386 13.625 10C13.625 10.2761 13.4011 10.5 13.125 10.5H6.875C6.59886 10.5 6.375 10.2761 6.375 10Z" />
</svg>
