<svg width="87" height="52" viewBox="0 0 87 52" xmlns="http://www.w3.org/2000/svg">
	<path d="M11.32 18.74C10 19.72 8.55 20.21 6.97 20.21C5.45 20.21 4.37 19.75 3.73 18.83C3.11 17.91 2.8 16.41 2.8 14.33C2.8 13.99 2.82 13.4 2.86 12.56L3.13 8.06H0.1V6.29H3.25L3.46 2.63L5.86 2.24L6.16 2.21L6.19 2.39C6.05 2.59 5.94 2.76 5.86 2.9C5.8 3.04 5.76 3.26 5.74 3.56L5.41 6.29H9.97V8.06H5.29L5.02 12.71C4.98 13.51 4.96 14.04 4.96 14.3C4.96 15.9 5.14 16.99 5.5 17.57C5.88 18.13 6.48 18.41 7.3 18.41C7.9 18.41 8.45 18.3 8.95 18.08C9.45 17.86 10.02 17.51 10.66 17.03L11.32 18.74ZM16 18.26H19.51V8.03H16.18V6.29H21.67V18.26H24.88V20H16V18.26ZM20.47 3.41C20.05 3.41 19.69 3.26 19.39 2.96C19.09 2.66 18.94 2.3 18.94 1.88C18.94 1.44 19.08 1.07 19.36 0.769999C19.66 0.469999 20.03 0.319999 20.47 0.319999C20.89 0.319999 21.25 0.479999 21.55 0.799999C21.87 1.1 22.03 1.46 22.03 1.88C22.03 2.3 21.87 2.66 21.55 2.96C21.25 3.26 20.89 3.41 20.47 3.41ZM30.16 6.29H32.26V8.72C32.8 7.88 33.48 7.21 34.3 6.71C35.12 6.21 35.99 5.96 36.91 5.96C38.13 5.96 39.1 6.43 39.82 7.37C40.56 8.29 40.93 9.73 40.93 11.69V20H38.83V11.75C38.83 10.39 38.6 9.4 38.14 8.78C37.68 8.16 37.07 7.85 36.31 7.85C35.69 7.85 35.06 8.03 34.42 8.39C33.8 8.75 33.28 9.26 32.86 9.92C32.46 10.56 32.26 11.29 32.26 12.11V20H30.16V6.29ZM56.29 6.29C56.17 7.11 55.98 7.92 55.72 8.72C55.48 9.52 55.13 10.58 54.67 11.9L51.25 21.56C50.79 22.84 50.19 23.77 49.45 24.35C48.71 24.93 47.83 25.22 46.81 25.22C45.53 25.22 44.48 24.83 43.66 24.05L44.59 22.58L44.77 22.31L44.95 22.43C44.99 22.63 45.06 22.79 45.16 22.91C45.26 23.05 45.45 23.17 45.73 23.27C46.09 23.39 46.49 23.45 46.93 23.45C47.67 23.45 48.26 23.19 48.7 22.67C49.14 22.15 49.57 21.29 49.99 20.09L44.38 6.29H46.63L50.89 17.27L52.69 11.75C53.13 10.37 53.45 9.32 53.65 8.6C53.87 7.86 54.03 7.09 54.13 6.29H56.29ZM8.11 36.96C9.57 36.96 10.78 37.46 11.74 38.46L10.78 40.14L10.66 40.41L10.45 40.29C10.39 40.07 10.32 39.9 10.24 39.78C10.16 39.64 9.99 39.49 9.73 39.33C9.21 38.99 8.62 38.82 7.96 38.82C7.24 38.82 6.56 39 5.92 39.36C5.28 39.72 4.76 40.27 4.36 41.01C3.96 41.73 3.76 42.64 3.76 43.74V51.03H1.57V37.29H3.82L3.76 39.81C4.14 38.91 4.72 38.21 5.5 37.71C6.3 37.21 7.17 36.96 8.11 36.96ZM21.16 51.3C19.12 51.3 17.49 50.68 16.27 49.44C15.07 48.2 14.47 46.45 14.47 44.19C14.47 42.69 14.75 41.4 15.31 40.32C15.87 39.22 16.62 38.39 17.56 37.83C18.52 37.25 19.59 36.96 20.77 36.96C22.43 36.96 23.77 37.51 24.79 38.61C25.83 39.71 26.35 41.33 26.35 43.47C26.35 43.69 26.33 44.02 26.29 44.46H16.54C16.62 46.14 17.09 47.41 17.95 48.27C18.81 49.13 19.9 49.56 21.22 49.56C22.66 49.56 23.84 49.05 24.76 48.03L25.96 49.2C24.8 50.6 23.2 51.3 21.16 51.3ZM24.16 42.78C24.16 41.5 23.83 40.49 23.17 39.75C22.53 38.99 21.68 38.61 20.62 38.61C19.62 38.61 18.75 38.96 18.01 39.66C17.27 40.36 16.81 41.4 16.63 42.78H24.16ZM35.32 36.99C37.28 36.99 38.77 37.5 39.79 38.52C40.83 39.54 41.35 41.27 41.35 43.71V51H39.01V48.9C38.17 50.52 36.61 51.33 34.33 51.33C32.81 51.33 31.62 50.99 30.76 50.31C29.9 49.61 29.47 48.69 29.47 47.55C29.47 46.59 29.78 45.75 30.4 45.03C31.02 44.31 31.85 43.76 32.89 43.38C33.95 42.98 35.11 42.78 36.37 42.78C37.51 42.78 38.54 42.84 39.46 42.96C39.34 41.42 38.93 40.34 38.23 39.72C37.55 39.08 36.53 38.76 35.17 38.76C34.49 38.76 33.83 38.89 33.19 39.15C32.57 39.41 32 39.79 31.48 40.29L30.43 38.91C31.71 37.63 33.34 36.99 35.32 36.99ZM34.54 49.68C36.02 49.68 37.19 49.25 38.05 48.39C38.91 47.51 39.38 46.25 39.46 44.61C38.56 44.47 37.59 44.4 36.55 44.4C35.03 44.4 33.83 44.65 32.95 45.15C32.07 45.65 31.63 46.41 31.63 47.43C31.63 48.93 32.6 49.68 34.54 49.68ZM50.02 51.3C49.04 51.3 48.12 51.03 47.26 50.49C46.4 49.93 45.7 49.1 45.16 48C44.62 46.9 44.35 45.57 44.35 44.01C44.35 42.43 44.63 41.11 45.19 40.05C45.75 38.99 46.47 38.21 47.35 37.71C48.23 37.19 49.16 36.93 50.14 36.93C51.06 36.93 51.86 37.14 52.54 37.56C53.24 37.98 53.77 38.56 54.13 39.3V31.05H56.41V31.26C56.29 31.38 56.21 31.51 56.17 31.65C56.15 31.79 56.14 32.03 56.14 32.37L56.17 48.87C56.17 49.35 56.18 49.75 56.2 50.07C56.24 50.37 56.33 50.68 56.47 51H54.34C54.2 50.68 54.11 50.37 54.07 50.07C54.05 49.75 54.04 49.35 54.04 48.87C53.6 49.63 53.03 50.23 52.33 50.67C51.65 51.09 50.88 51.3 50.02 51.3ZM50.35 49.41C51.59 49.41 52.5 48.92 53.08 47.94C53.66 46.96 53.95 45.67 53.95 44.07C53.95 42.45 53.63 41.15 52.99 40.17C52.37 39.19 51.43 38.7 50.17 38.7C48.97 38.7 48.05 39.15 47.41 40.05C46.77 40.93 46.45 42.14 46.45 43.68C46.45 45.44 46.78 46.84 47.44 47.88C48.12 48.9 49.09 49.41 50.35 49.41ZM66.16 51.3C64.12 51.3 62.49 50.68 61.27 49.44C60.07 48.2 59.47 46.45 59.47 44.19C59.47 42.69 59.75 41.4 60.31 40.32C60.87 39.22 61.62 38.39 62.56 37.83C63.52 37.25 64.59 36.96 65.77 36.96C67.43 36.96 68.77 37.51 69.79 38.61C70.83 39.71 71.35 41.33 71.35 43.47C71.35 43.69 71.33 44.02 71.29 44.46H61.54C61.62 46.14 62.09 47.41 62.95 48.27C63.81 49.13 64.9 49.56 66.22 49.56C67.66 49.56 68.84 49.05 69.76 48.03L70.96 49.2C69.8 50.6 68.2 51.3 66.16 51.3ZM69.16 42.78C69.16 41.5 68.83 40.49 68.17 39.75C67.53 38.99 66.68 38.61 65.62 38.61C64.62 38.61 63.75 38.96 63.01 39.66C62.27 40.36 61.81 41.4 61.63 42.78H69.16ZM83.11 36.96C84.57 36.96 85.78 37.46 86.74 38.46L85.78 40.14L85.66 40.41L85.45 40.29C85.39 40.07 85.32 39.9 85.24 39.78C85.16 39.64 84.99 39.49 84.73 39.33C84.21 38.99 83.62 38.82 82.96 38.82C82.24 38.82 81.56 39 80.92 39.36C80.28 39.72 79.76 40.27 79.36 41.01C78.96 41.73 78.76 42.64 78.76 43.74V51.03H76.57V37.29H78.82L78.76 39.81C79.14 38.91 79.72 38.21 80.5 37.71C81.3 37.21 82.17 36.96 83.11 36.96Z"
	/>
	<path d="M59.05 20.57H71.98V22.4H59.05V20.57Z" fill="#007AA3" />
</svg>
