<svg width="20" height="20" viewBox="0 0 20 20" xmlns="http://www.w3.org/2000/svg">
    <path d="M2.8125 1.375H13.439C13.8195 1.37611 14.1841 1.52776 14.4532 1.79683C14.7222 2.0659 14.8739 2.43052 14.875 2.81105L14.875 2.8125L14.875 16.2445H13.875V2.81341C13.8745 2.69729 13.8282 2.58606 13.7461 2.50394C13.664 2.42183 13.5527 2.37549 13.4366 2.375H2.81336C2.69726 2.37549 2.58605 2.42183 2.50394 2.50394C2.42183 2.58605 2.37549 2.69726 2.375 2.81336V16.5617C2.37602 16.8434 2.48837 17.1132 2.68757 17.3124C2.88678 17.5117 3.15669 17.624 3.43841 17.625H16.25V18.625H3.4375L3.43601 18.625C2.8899 18.6234 2.36662 18.4057 1.98046 18.0195C1.5943 17.6334 1.37663 17.1101 1.375 16.564L1.375 16.5625V2.81105C1.37611 2.43052 1.52776 2.0659 1.79683 1.79683C2.0659 1.52776 2.43052 1.37611 2.81105 1.375L2.8125 1.375Z M13.875 5C13.875 4.72386 14.0989 4.5 14.375 4.5H17.1875C17.5687 4.5 17.9344 4.65145 18.204 4.92103C18.4735 5.19062 18.625 5.55625 18.625 5.9375V16.25C18.625 16.8799 18.3748 17.484 17.9294 17.9294C17.484 18.3748 16.8799 18.625 16.25 18.625C15.6201 18.625 15.016 18.3748 14.5706 17.9294C14.1252 17.484 13.875 16.8799 13.875 16.25V5ZM14.875 5.5V16.25C14.875 16.6147 15.0199 16.9644 15.2777 17.2223C15.5356 17.4801 15.8853 17.625 16.25 17.625C16.6147 17.625 16.9644 17.4801 17.2223 17.2223C17.4801 16.9644 17.625 16.6147 17.625 16.25V5.9375C17.625 5.82147 17.5789 5.71019 17.4969 5.62814C17.4148 5.54609 17.3035 5.5 17.1875 5.5H14.875Z M8.875 5C8.875 4.72386 9.09886 4.5 9.375 4.5H11.875C12.1511 4.5 12.375 4.72386 12.375 5C12.375 5.27614 12.1511 5.5 11.875 5.5H9.375C9.09886 5.5 8.875 5.27614 8.875 5Z M8.875 7.5C8.875 7.22386 9.09886 7 9.375 7H11.875C12.1511 7 12.375 7.22386 12.375 7.5C12.375 7.77614 12.1511 8 11.875 8H9.375C9.09886 8 8.875 7.77614 8.875 7.5Z M3.875 10C3.875 9.72386 4.09886 9.5 4.375 9.5H11.875C12.1511 9.5 12.375 9.72386 12.375 10C12.375 10.2761 12.1511 10.5 11.875 10.5H4.375C4.09886 10.5 3.875 10.2761 3.875 10Z M3.875 12.5C3.875 12.2239 4.09886 12 4.375 12H11.875C12.1511 12 12.375 12.2239 12.375 12.5C12.375 12.7761 12.1511 13 11.875 13H4.375C4.09886 13 3.875 12.7761 3.875 12.5Z M3.875 15C3.875 14.7239 4.09886 14.5 4.375 14.5H11.875C12.1511 14.5 12.375 14.7239 12.375 15C12.375 15.2761 12.1511 15.5 11.875 15.5H4.375C4.09886 15.5 3.875 15.2761 3.875 15Z M6.875 8.125H4.375C4.20924 8.125 4.05027 8.05915 3.93306 7.94194C3.81585 7.82473 3.75 7.66576 3.75 7.5V5C3.75 4.83424 3.81585 4.67527 3.93306 4.55806C4.05027 4.44085 4.20924 4.375 4.375 4.375H6.875C7.04076 4.375 7.19973 4.44085 7.31694 4.55806C7.43415 4.67527 7.5 4.83424 7.5 5V7.5C7.5 7.66576 7.43415 7.82473 7.31694 7.94194C7.19973 8.05915 7.04076 8.125 6.875 8.125Z M6.5 7.125V5.375H4.75V7.125H6.5ZM4.375 8.125H6.875C7.04076 8.125 7.19973 8.05915 7.31694 7.94194C7.43415 7.82473 7.5 7.66576 7.5 7.5V5C7.5 4.83424 7.43415 4.67527 7.31694 4.55806C7.19973 4.44085 7.04076 4.375 6.875 4.375H4.375C4.20924 4.375 4.05027 4.44085 3.93306 4.55806C3.81585 4.67527 3.75 4.83424 3.75 5V7.5C3.75 7.66576 3.81585 7.82473 3.93306 7.94194C4.05027 8.05915 4.20924 8.125 4.375 8.125Z" />
</svg>
