<svg width="20" height="20" viewBox="0 0 20 20" xmlns="http://www.w3.org/2000/svg">
	<path d="M10 1.875C5.51992 1.875 1.875 5.51992 1.875 10C1.875 14.4801 5.51992 18.125 10 18.125C14.4801 18.125 18.125 14.4801 18.125 10C18.125 5.51992 14.4801 1.875 10 1.875ZM13.125 10.625H10.625H10.4411C10.3672 10.625 10.3477 10.625 10.2466 10.625C10.2466 10.625 10.1137 10.625 9.92693 10.625C9.74012 10.625 9.72542 10.625 9.5 10.625C9.23901 10.625 8.89853 10.625 8.89853 10.625H8H6.875C6.70924 10.625 6.55027 10.5592 6.43306 10.4419C6.31585 10.3247 6.25 10.1658 6.25 10C6.25 9.83424 6.31585 9.67527 6.43306 9.55806C6.55027 9.44085 6.70924 9.375 6.875 9.375H8H8.5C8.6165 9.375 8.94387 9.375 9.06558 9.375C9.16631 9.375 9.58698 9.375 9.75274 9.375C9.9185 9.375 10.1358 9.375 10.2948 9.375C10.5 9.375 10.7864 9.375 10.9339 9.375H11.7267H13.125C13.2908 9.375 13.4497 9.44085 13.5669 9.55806C13.6842 9.67527 13.75 9.83424 13.75 10C13.75 10.1658 13.6842 10.3247 13.5669 10.4419C13.4497 10.5592 13.2908 10.625 13.125 10.625Z" />
</svg>
