<svg width="20" height="20" viewBox="0 0 20 20" xmlns="http://www.w3.org/2000/svg">
    <path d="M10 1.375C10.2166 1.375 10.4086 1.51446 10.4755 1.72046L12.3945 7.625H18.75C18.9691 7.625 19.1627 7.76768 19.2276 7.97698C19.2925 8.18629 19.2135 8.41344 19.0328 8.53736L13.8759 12.0735L15.8644 17.9651C15.9339 18.1712 15.8622 18.3987 15.6871 18.5277C15.5119 18.6566 15.2734 18.6575 15.0972 18.5299L10 14.8362L4.90276 18.5299C4.72661 18.6575 4.48813 18.6566 4.31294 18.5277C4.13776 18.3987 4.06606 18.1712 4.13563 17.9651L6.12406 12.0735L0.967236 8.53736C0.786516 8.41344 0.707543 8.18629 0.772411 7.97698C0.83728 7.76768 1.03087 7.625 1.25 7.625H7.60551L9.52448 1.72046C9.59143 1.51446 9.7834 1.375 10 1.375ZM10 3.49267L8.44427 8.27954C8.37732 8.48554 8.18535 8.625 7.96875 8.625H2.8633L7.00151 11.4626C7.18604 11.5892 7.26404 11.8229 7.1925 12.0349L5.58379 16.8014L9.70661 13.8139C9.88164 13.687 10.1184 13.687 10.2934 13.8139L14.4162 16.8014L12.8075 12.0349C12.736 11.8229 12.814 11.5892 12.9985 11.4626L17.1367 8.625H12.0312C11.8147 8.625 11.6227 8.48554 11.5557 8.27954L10 3.49267Z" />
</svg>
