<svg width="20" height="20" viewBox="0 0 20 20" xmlns="http://www.w3.org/2000/svg">
    <path d="M17 7.874V15.4558C17 16.5137 16.5157 17 15.4603 17H4.53975C3.48417 17 3 16.5137 3 15.4558V4.54421C3 3.48627 3.48417 3.0001 4.53975 3H12.1261C12.2175 2.64523 12.3562 2.30951 12.5353 2H4.07509C2.9298 2 2 2.93205 2 4.08001V15.92C2 17.0679 2.9298 18 4.07509 18H15.9248C17.0701 18 18 17.0679 18 15.92V7.46493C17.6905 7.64395 17.3548 7.7827 17 7.874Z M16.0001 8C16.9666 8 17.853 7.65718 18.5445 7.08664C19.4335 6.35291 20.0001 5.24264 20.0001 4C20.0001 1.79082 18.2092 0 16.0001 0C13.791 0 12.0001 1.79082 12.0001 4C12.0001 6.20918 13.791 8 16.0001 8Z" />
</svg>
